{
	// 如果您是通过uni_modules形式引入uView，可以忽略此配置
	"easycom": {
		"^u-(.*)": "@/uni_modules/uview-ui/components/u-$1/u-$1.vue"
	},
	"pages": [ //pages数组中第一项表示应用启动页，参考：https://uniapp.dcloud.io/collocation/pages
		{
			"path": "pages/home/index",
			"style": {
				"navigationBarTitleText": "首页"
			}
		},
		{
			"path": "pages/demonstration/index",
			"style": {
				"navigationBarTitleText": "演示"
			}
		},
		{
			"path": "pages/delivery/index",
			"style": {
				"navigationBarTitleText": "交付"
			}
		},
		{
			"path": "pages/statistics/index",
			"style": {
				"navigationBarTitleText": "统计"
			}
		}
	],
	"globalStyle": {
		"navigationBarTextStyle": "black",
		// "navigationBarTitleText": "uni-app",
		"navigationBarBackgroundColor": "#F8F8F8",
		"backgroundColor": "#F8F8F8"
	},
	"uniIdRouter": {},
	"tabBar": {
	  "color": "#282828",
	  "selectedColor": "background: rgba(17, 122, 242, 1)",
	  "borderStyle": "black",
	  "backgroundColor": "#ffffff",
	  "height": "50px",
	  "fontSize": "10px",
	  "iconWidth": "24px",
	  "spacing": "3px",
	  "list": [
	    {
	      "pagePath": "pages/home/index",
	      "iconPath": "static/home.png",
	      "selectedIconPath": "static/home-hot.png",
	      "text": "首页"
	    },
	    {
	      "pagePath": "pages/demonstration/index",
	      "iconPath": "static/order.png",
	      "selectedIconPath": "static/order-hot.png",
	      "text": "演示"
	    },
	    {
	      "pagePath": "pages/delivery/index",
	      "iconPath": "static/delivery.png",
	      "selectedIconPath": "static/delivery-hot.png",
	      "text": "交付"
	    },
	    {
	      "pagePath": "pages/statistics/index",
	      "iconPath": "static/statistics.png",
	      "selectedIconPath": "static/statistics-hot.png",
	      "text": "统计"
	    }
	  ]
	}
}
